// Jest Snapshot v1, https://goo.gl/fbAQLP

exports[`render test snapshot 1`] = `
<div
  className="Layout"
>
  <button
    className="Btn BtnLogout"
    onClick={[MockFunction]}
  >
    Logout
  </button>
  <_default />
</div>
`;
